<svg width="28" height="24" viewBox="0 0 28 24" fill="none" xmlns="http://www.w3.org/2000/svg">
<path d="M26 12H2M2 12L12.7143 2M2 12L12.7143 22" stroke="#B4B2B2" stroke-width="3" stroke-linecap="round" stroke-linejoin="round"/>
</svg>
