<?xml version="1.0" encoding="UTF-8" standalone="no"?>
<svg width='26' height='41' viewBox='0 0 26 41' fill='none' xmlns='http://www.w3.org/2000/svg'>
    <path d='M25.9236 26.8223C25.9236 28.747 25.6972 30.5586 25.2443 32.2569C24.8291 33.9552 24.0744 35.4459 22.9799 36.7291C21.9232 37.9745 20.4701 38.9746 18.6209 39.7294C16.8094 40.4464 14.5073 40.805 11.7145 40.805C9.14815 40.805 6.94035 40.503 5.09109 39.8992C3.24183 39.2576 1.71336 38.5217 0.505675 37.6914L3.4494 30.8416C4.54387 31.4832 5.7138 32.0493 6.95923 32.5399C8.20465 33.0305 9.56329 33.2758 11.0352 33.2758C13.1863 33.2758 14.7337 32.7474 15.6772 31.6908C16.6206 30.6341 17.0924 28.8603 17.0924 26.3694V0.781643H25.9236V26.8223Z' fill='white'/>
</svg>
